^D:\DOCUMENT\DEV\ARCHIVE\PROTORARIUM\SRC\RARIUM\DEBUG\ACTOR.OBJ|D:\DOCUMENT\DEV\ARCHIVE\PROTORARIUM\SRC\RARIUM\DEBUG\ACTORINSTANCE.OBJ|D:\DOCUMENT\DEV\ARCHIVE\PROTORARIUM\SRC\RARIUM\DEBUG\BUILD.OBJ|D:\DOCUMENT\DEV\ARCHIVE\PROTORARIUM\SRC\RARIUM\DEBUG\CATALOG.OBJ|D:\DOCUMENT\DEV\ARCHIVE\PROTORARIUM\SRC\RARIUM\DEBUG\CLOCK.OBJ|D:\DOCUMENT\DEV\ARCHIVE\PROTORARIUM\SRC\RARIUM\DEBUG\CUBEMAP.OBJ|D:\DOCUMENT\DEV\ARCHIVE\PROTORARIUM\SRC\RARIUM\DEBUG\ENGINE.OBJ|D:\DOCUMENT\DEV\ARCHIVE\PROTORARIUM\SRC\RARIUM\DEBUG\FIXEDCAMERA.OBJ|D:\DOCUMENT\DEV\ARCHIVE\PROTORARIUM\SRC\RARIUM\DEBUG\LOG.OBJ|D:\DOCUMENT\DEV\ARCHIVE\PROTORARIUM\SRC\RARIUM\DEBUG\MATERIAL.OBJ|D:\DOCUMENT\DEV\ARCHIVE\PROTORARIUM\SRC\RARIUM\DEBUG\MESH.OBJ|D:\DOCUMENT\DEV\ARCHIVE\PROTORARIUM\SRC\RARIUM\DEBUG\REGISTER.OBJ|D:\DOCUMENT\DEV\ARCHIVE\PROTORARIUM\SRC\RARIUM\DEBUG\RES.OBJ|D:\DOCUMENT\DEV\ARCHIVE\PROTORARIUM\SRC\RARIUM\DEBUG\RESOURCE.OBJ|D:\DOCUMENT\DEV\ARCHIVE\PROTORARIUM\SRC\RARIUM\DEBUG\SETUP.OBJ|D:\DOCUMENT\DEV\ARCHIVE\PROTORARIUM\SRC\RARIUM\DEBUG\TECHNIQUE.OBJ|D:\DOCUMENT\DEV\ARCHIVE\PROTORARIUM\SRC\RARIUM\DEBUG\TEXTURE.OBJ|D:\DOCUMENT\DEV\ARCHIVE\PROTORARIUM\SRC\RARIUM\DEBUG\UTIL.OBJ
C:\PROGRAM FILES (X86)\MICROSOFT VISUAL STUDIO 14.0\VC\BIN\VCTIP.EXE
C:\WINDOWS\SYSTEM32\TZRES.DLL
C:\WINDOWS\GLOBALIZATION\SORTING\SORTDEFAULT.NLS
D:\DOCUMENT\DEV\ARCHIVE\PROTORARIUM\LIB\SDL2.LIB
D:\DOCUMENT\DEV\ARCHIVE\PROTORARIUM\LIB\GLEW32S.LIB
C:\PROGRAM FILES (X86)\WINDOWS KITS\8.1\LIB\WINV6.3\UM\X86\OPENGL32.LIB
C:\PROGRAM FILES (X86)\WINDOWS KITS\8.1\LIB\WINV6.3\UM\X86\KERNEL32.LIB
C:\PROGRAM FILES (X86)\WINDOWS KITS\8.1\LIB\WINV6.3\UM\X86\USER32.LIB
C:\PROGRAM FILES (X86)\WINDOWS KITS\8.1\LIB\WINV6.3\UM\X86\GDI32.LIB
C:\PROGRAM FILES (X86)\WINDOWS KITS\8.1\LIB\WINV6.3\UM\X86\WINSPOOL.LIB
C:\PROGRAM FILES (X86)\WINDOWS KITS\8.1\LIB\WINV6.3\UM\X86\COMDLG32.LIB
C:\PROGRAM FILES (X86)\WINDOWS KITS\8.1\LIB\WINV6.3\UM\X86\ADVAPI32.LIB
C:\PROGRAM FILES (X86)\WINDOWS KITS\8.1\LIB\WINV6.3\UM\X86\SHELL32.LIB
C:\PROGRAM FILES (X86)\WINDOWS KITS\8.1\LIB\WINV6.3\UM\X86\OLE32.LIB
C:\PROGRAM FILES (X86)\WINDOWS KITS\8.1\LIB\WINV6.3\UM\X86\OLEAUT32.LIB
C:\PROGRAM FILES (X86)\WINDOWS KITS\8.1\LIB\WINV6.3\UM\X86\UUID.LIB
C:\PROGRAM FILES (X86)\WINDOWS KITS\8.1\LIB\WINV6.3\UM\X86\ODBC32.LIB
C:\PROGRAM FILES (X86)\WINDOWS KITS\8.1\LIB\WINV6.3\UM\X86\ODBCCP32.LIB
D:\DOCUMENT\DEV\ARCHIVE\PROTORARIUM\SRC\RARIUM\DEBUG\ACTORINSTANCE.OBJ
D:\DOCUMENT\DEV\ARCHIVE\PROTORARIUM\SRC\RARIUM\DEBUG\ENGINE.OBJ
D:\DOCUMENT\DEV\ARCHIVE\PROTORARIUM\SRC\RARIUM\DEBUG\FIXEDCAMERA.OBJ
D:\DOCUMENT\DEV\ARCHIVE\PROTORARIUM\SRC\RARIUM\DEBUG\BUILD.OBJ
D:\DOCUMENT\DEV\ARCHIVE\PROTORARIUM\SRC\RARIUM\DEBUG\REGISTER.OBJ
D:\DOCUMENT\DEV\ARCHIVE\PROTORARIUM\SRC\RARIUM\DEBUG\SETUP.OBJ
D:\DOCUMENT\DEV\ARCHIVE\PROTORARIUM\SRC\RARIUM\DEBUG\RES.OBJ
D:\DOCUMENT\DEV\ARCHIVE\PROTORARIUM\SRC\RARIUM\DEBUG\CATALOG.OBJ
D:\DOCUMENT\DEV\ARCHIVE\PROTORARIUM\SRC\RARIUM\DEBUG\RESOURCE.OBJ
D:\DOCUMENT\DEV\ARCHIVE\PROTORARIUM\SRC\RARIUM\DEBUG\ACTOR.OBJ
D:\DOCUMENT\DEV\ARCHIVE\PROTORARIUM\SRC\RARIUM\DEBUG\CUBEMAP.OBJ
D:\DOCUMENT\DEV\ARCHIVE\PROTORARIUM\SRC\RARIUM\DEBUG\MATERIAL.OBJ
D:\DOCUMENT\DEV\ARCHIVE\PROTORARIUM\SRC\RARIUM\DEBUG\MESH.OBJ
D:\DOCUMENT\DEV\ARCHIVE\PROTORARIUM\SRC\RARIUM\DEBUG\TECHNIQUE.OBJ
D:\DOCUMENT\DEV\ARCHIVE\PROTORARIUM\SRC\RARIUM\DEBUG\TEXTURE.OBJ
D:\DOCUMENT\DEV\ARCHIVE\PROTORARIUM\SRC\RARIUM\DEBUG\CLOCK.OBJ
D:\DOCUMENT\DEV\ARCHIVE\PROTORARIUM\SRC\RARIUM\DEBUG\LOG.OBJ
D:\DOCUMENT\DEV\ARCHIVE\PROTORARIUM\SRC\RARIUM\DEBUG\UTIL.OBJ
C:\PROGRAM FILES (X86)\MICROSOFT VISUAL STUDIO 14.0\VC\LIB\MSVCPRTD.LIB
C:\PROGRAM FILES (X86)\MICROSOFT VISUAL STUDIO 14.0\VC\LIB\MSVCRTD.LIB
C:\PROGRAM FILES (X86)\MICROSOFT VISUAL STUDIO 14.0\VC\LIB\OLDNAMES.LIB
C:\PROGRAM FILES (X86)\MICROSOFT VISUAL STUDIO 14.0\VC\LIB\LIBCMT.LIB
C:\PROGRAM FILES (X86)\MICROSOFT VISUAL STUDIO 14.0\VC\LIB\VCRUNTIMED.LIB
C:\PROGRAM FILES (X86)\WINDOWS KITS\10\LIB\10.0.10240.0\UCRT\X86\UCRTD.LIB
C:\PROGRAM FILES (X86)\MICROSOFT VISUAL STUDIO 14.0\VC\BIN\1033\LINKUI.DLL
C:\PROGRAM FILES (X86)\WINDOWS KITS\8.1\BIN\X86\RC.EXE
C:\PROGRAM FILES (X86)\MICROSOFT VISUAL STUDIO 14.0\VC\BIN\CVTRES.EXE
